Outsider Data Science - Sentiment Analysis Using Google Translate (Pt. 1)
…
The TidyTuesday github repo has the Afrisenti dataset with all the languages combined. Let’s load it.

afrisenti <- readr::read_csv('https://raw.githubusercontent.com/rfordatascience/tidytuesday/master/data/2023/2023-02-28/afrisenti.csv',
                             show_col_types = FALSE)

afrisenti

# A tibble: 111,720 × 4
   language_iso_code tweet                                         label inten…¹
   <chr>             <chr>                                         <chr> <chr>  
 1 amh               አማራ ክልል ፈልቶበታል ልኩን ማስገባት ነው!!! ሙስሊሞችን ጠልቶ 85… nega… dev    
 2 amh               ሰውን አንገት በሚያስደፋ መልኩ ዝም ብሎ ሙድ መያዝ....ስልህ ያ ሰው… nega… dev    
 3 amh               የቤት ውስጥ ጥቃት – ያለሰሚ – ያለተመልካች                  nega… dev    
 4 amh               Ethiopia ወያኔን ለመጣል ምን ድርሻ ነበራችሁ ? ከወደቀ በኋላ ጉ… nega… dev    
 5 amh               ኦሮሞ ምንም ቢማር ከብት ነዉ አያስተዉልም ጥንብ ዘረኛ ናቸዉ        nega… dev    
 6 amh               ቲሽ ጨለምተኛ ዱቄት 97 ላይ ቆመሃል እንዴ ጊዜው ነጉዷል 2012 ነው… nega… dev    
 7 amh               በምዕራብ ኦሮሚያ በሚገኙ በሁለቱ የወለጋ ዞኖች (ምስራቅ ወለጋና ሆሮ … nega… dev    
 8 amh               ያየሰው ሺመልስ ላይ የደረሰው ነገር ያሳዝናል። በቃል ኣላምረውም ላይም… nega… dev    
 9 amh               ያልተረጋጋች ሀገር ምርጫ አያስፈልጋትም                      nega… dev    
10 amh               ደደቡ እና አረፋው የኢትዮጵያው ጠ/ሚ አብዪ ከኤርትራው ኣያቶላህ ኢሰያ… nega… dev    
# … with 111,710 more rows, and abbreviated variable name ¹​intended_use
…
# save it for later use
save(afrisenti_translated,file="data/afrisenti_translated.rdata")

Save Some Money

That done, YOU don’t want to pay $15 and you don’t have to. Let’s download the translated Afrisenti data set from my repo instead.

afrisenti_translated <- readr::read_csv('https://raw.githubusercontent.com/apsteinmetz/tidytuesday/master/2023-02-28_african_language/data/afrisenti_translated.csv',
                                        show_col_types = FALSE)
afrisenti_translated

# A tibble: 111,720 × 9
   tweet_num translatedText  detec…¹ assig…² tweet label inten…³ detec…⁴ assig…⁵
       <dbl> <chr>           <chr>   <chr>   <chr> <chr> <chr>   <chr>   <chr>  
 1         1 Amhara region … am      amh     አማራ … nega… dev     Amharic Amharic
 2         2 Having a mood … am      amh     ሰውን … nega… dev     Amharic Amharic
 3         3 Domestic viole… am      amh     የቤት … nega… dev     Amharic Amharic
 4         4 Ethiopia, what… am      amh     Ethi… nega… dev     Amharic Amharic
 5         5 No matter how … am      amh     ኦሮሞ … nega… dev     Amharic Amharic
 6         6 Tish, dark pow… am      amh     ቲሽ ጨ… nega… dev     Amharic Amharic
 7         7 Local resident… am      amh     በምዕራ… nega… dev     Amharic Amharic
 8         8 What happened … am      amh     ያየሰው… nega… dev     Amharic Amharic
 9         9 An unstable co… am      amh     ያልተረ… nega… dev     Amharic Amharic
10        10 The idiot and … am      amh     ደደቡ … nega… dev     Amharic Amharic
# … with 111,710 more rows, and abbreviated variable names ¹​detected_language,
#   ²​assigned_language, ³​intended_use, ⁴​detected_long, ⁵​assigned_long
…
