Outsider Data Science - Sentiment Analysis Using Google Translate (Pt. 3 - Machine Learning)
…
    legend.box.background = element_blank(),
    legend.key = element_blank(),
    ...
    ) 
}
# the the previously translated tweets.
afrisenti_translated <- readr::read_csv('https://raw.githubusercontent.com/apsteinmetz/tidytuesday/master/2023-02-28_african_language/data/afrisenti_translated.csv',
                                        show_col_types = FALSE) |>
  mutate(lang = as.factor(assigned_long)) |> 
  mutate(sentiment = as.factor(label)) |> 
  mutate(intended_use = as.factor(intended_use)) |> 
  select(lang,tweet_num,sentiment,translatedText,tweet,intended_use)
afrisenti_translated

# A tibble: 111,720 × 6
   lang    tweet_num sentiment translatedText                 tweet intended_use
   <fct>       <dbl> <fct>     <chr>                          <chr> <fct>       
 1 Amharic         1 negative  Amhara region needs moderatio… አማራ … dev         
 2 Amharic         2 negative  Having a mood in a way that a… ሰውን … dev         
 3 Amharic         3 negative  Domestic violence - without h… የቤት … dev         
 4 Amharic         4 negative  Ethiopia, what was your role … Ethi… dev         
 5 Amharic         5 negative  No matter how Oromo learns, t… ኦሮሞ … dev         
 6 Amharic         6 negative  Tish, dark powder, are you st… ቲሽ ጨ… dev         
 7 Amharic         7 negative  Local residents said that the… በምዕራ… dev         
 8 Amharic         8 negative  What happened to Schimmels is… ያየሰው… dev         
 9 Amharic         9 negative  An unstable country does not … ያልተረ… dev         
10 Amharic        10 negative  The idiot and the bubble, the… ደደቡ … dev         
# ℹ 111,710 more rows
…
