Is Free Pre-K in NYC Favoring the Rich? – Outsider Data Science
…
# add normalized seats per capita/kid
allData<-allData %>% mutate(seatsPer100Kids = round(numSeats/ kidsUnder3*100,digits=1),
                            seatsPer1000People=round(numSeats/totPop*1000,digits=1))

allData

## # A tibble: 171 x 8
##    zip   schools numSeats totPop kidsUnder3 HouseholdIncome seatsPer100Kids
##    <chr>   <int>    <int>  <dbl>      <dbl>           <dbl>           <dbl>
##  1 10001       7      167  21097        532           67795            31.4
##  2 10002      27      982  81335       1761           32407            55.8
##  3 10003       2       54  55190        937           88601             5.8
##  4 10004       1       31   2604        154          127448            20.1
##  5 10007       1       36   5892        311          191900            11.6
##  6 10009      13      366  62335       1116           55316            32.8
##  7 10010       2       87  28954        532           94242            16.4
##  8 10011       4      123  51064       1187           99700            10.4
##  9 10012       2       56  24342        453           77072            12.4
## 10 10013       4       74  25942        889           64806             8.3
## # ... with 161 more rows, and 1 more variable: seatsPer1000People <dbl>
…
