Outsider Data Science - Animating a Heatmap with Rayshader
…
To normalize the data we’ll compute the proportion of outcomes in each cell, rather than the count. The perfect match would see 33% of the outcomes in each correct cell and zero in all the others.

xt <- bind_rows(wv,sv,mln,mle,perfect) |> 
  pivot_longer(cols = 3:5,names_to = "predicted",values_to = "count") |> 
  group_by(method) |> 
  mutate(proportion = count/sum(count))
xt

# A tibble: 45 × 5
# Groups:   method [5]
   method           truth    predicted count proportion
   <chr>            <chr>    <chr>     <dbl>      <dbl>
 1 Word Valence     negative negative  15083     0.135 
 2 Word Valence     negative neutral   14619     0.131 
 3 Word Valence     negative positive   6862     0.0614
 4 Word Valence     neutral  negative   7761     0.0695
 5 Word Valence     neutral  neutral   23921     0.214 
 6 Word Valence     neutral  positive   7469     0.0669
 7 Word Valence     positive negative   4720     0.0422
 8 Word Valence     positive neutral   13148     0.118 
 9 Word Valence     positive positive  18137     0.162 
10 Sentence Valence negative negative  17776     0.159 
# ℹ 35 more rows
…
