analyze tweets with google translate pt 2
…
Warning: package 'hunspell' was built under R version 4.2.3

afrisenti_translated <- readr::read_csv('https://raw.githubusercontent.com/apsteinmetz/tidytuesday/master/2023-02-28_african_language/data/afrisenti_translated.csv',
                                        show_col_types = FALSE) |> 
  mutate(tweet_sentiment = as.factor(label))
afrisenti_translated

# A tibble: 111,720 × 10
   tweet_num trans…¹ detec…² assig…³ tweet label inten…⁴ detec…⁵ assig…⁶ tweet…⁷
       <dbl> <chr>   <chr>   <chr>   <chr> <chr> <chr>   <chr>   <chr>   <fct>  
 1         1 Amhara… am      amh     አማራ … nega… dev     Amharic Amharic negati…
 2         2 Having… am      amh     ሰውን … nega… dev     Amharic Amharic negati…
 3         3 Domest… am      amh     የቤት … nega… dev     Amharic Amharic negati…
 4         4 Ethiop… am      amh     Ethi… nega… dev     Amharic Amharic negati…
 5         5 No mat… am      amh     ኦሮሞ … nega… dev     Amharic Amharic negati…
 6         6 Tish, … am      amh     ቲሽ ጨ… nega… dev     Amharic Amharic negati…
 7         7 Local … am      amh     በምዕራ… nega… dev     Amharic Amharic negati…
 8         8 What h… am      amh     ያየሰው… nega… dev     Amharic Amharic negati…
 9         9 An uns… am      amh     ያልተረ… nega… dev     Amharic Amharic negati…
10        10 The id… am      amh     ደደቡ … nega… dev     Amharic Amharic negati…
# … with 111,710 more rows, and abbreviated variable names ¹​translatedText,
#   ²​detected_language, ³​assigned_language, ⁴​intended_use, ⁵​detected_long,
#   ⁶​assigned_long, ⁷​tweet_sentiment
…
tweet_sentiment <- tweet_word_sentiment %>% 
  group_by(tweet_num) %>% 
  summarise(sentiment_afinn = as.integer(sum(sentiment_afinn)),
            sentiment_bing = as.integer(sum(sentiment_bing)),
            .groups = "keep") %>% 
  left_join(afrisenti_translated,by = join_by(tweet_num)) %>% 
  mutate(label_afinn = cut(sentiment_afinn,breaks = c( -Inf,-1,0,Inf),
                           labels=c("negative","neutral","positive"))) %>% 
  mutate(label_bing = cut(sentiment_bing,breaks = c( -Inf,-1,0,Inf),
                           labels=c("negative","neutral","positive"))) |> 
  select(tweet_num,translatedText,label,label_afinn,label_bing)

tweet_sentiment

# A tibble: 108,186 × 5
# Groups:   tweet_num [108,186]
   tweet_num translatedText                                label label…¹ label…²
       <dbl> <chr>                                         <chr> <fct>   <fct>  
 1         1 Amhara region needs moderation!!! He hates M… nega… negati… negati…
 2         2 Having a mood in a way that annoys someone..… nega… negati… negati…
 3         3 Domestic violence - without hearing - withou… nega… negati… neutral
 4         4 Ethiopia, what was your role in overthrowing… nega… neutral negati…
 5         5 No matter how Oromo learns, they don't reali… nega… negati… negati…
 6         6 Tish, dark powder, are you standing at 97? T… nega… neutral negati…
 7         7 Local residents said that the internet and t… nega… negati… neutral
 8         8 What happened to Schimmels is sad. By the wo… nega… negati… negati…
 9         9 An unstable country does not need elections   nega… negati… negati…
10        10 The idiot and the bubble, the Ethiopian PM A… nega… negati… negati…
# … with 108,176 more rows, and abbreviated variable names ¹​label_afinn,
#   ²​label_bing
…
