Outsider Data Science - Sentiment Analysis Using Google Translate (Pt. 2 - Word Valence)
…
    plot.background = element_rect(fill = tan1, color = NA),
    panel.background = element_blank(),
    legend.background = element_blank(),
    legend.box.background = element_blank(),
    legend.key = element_blank(),
    ...
    ) 
}
afrisenti_translated <- readr::read_csv('https://raw.githubusercontent.com/apsteinmetz/tidytuesday/master/2023-02-28_african_language/data/afrisenti_translated.csv',
                                        show_col_types = FALSE) |>
  select(tweet_num,assigned_long,translatedText,label) |> 
  mutate(label = as.factor(label))
afrisenti_translated

# A tibble: 111,720 × 4
   tweet_num assigned_long translatedText                                  label
       <dbl> <chr>         <chr>                                           <fct>
 1         1 Amharic       Amhara region needs moderation!!! He hates Mus… nega…
 2         2 Amharic       Having a mood in a way that annoys someone....  nega…
 3         3 Amharic       Domestic violence - without hearing - without … nega…
 4         4 Amharic       Ethiopia, what was your role in overthrowing T… nega…
 5         5 Amharic       No matter how Oromo learns, they don't realize… nega…
 6         6 Amharic       Tish, dark powder, are you standing at 97? Tim… nega…
 7         7 Amharic       Local residents said that the internet and tel… nega…
 8         8 Amharic       What happened to Schimmels is sad. By the word… nega…
 9         9 Amharic       An unstable country does not need elections     nega…
10        10 Amharic       The idiot and the bubble, the Ethiopian PM Abi… nega…
# ℹ 111,710 more rows
…
